[
 {
  "directory": "/Volumes/Blip/Projects/ctrUSB", 
  "arguments": [
   "arm-none-eabi-gcc", 
   "-MMD", 
   "-MP", 
   "-MF", 
   "/Volumes/Blip/Projects/ctrUSB/build/main.d", 
   "-g", 
   "-Wall", 
   "-O2", 
   "-mword-relocations", 
   "-fomit-frame-pointer", 
   "-ffunction-sections", 
   "-march=armv6k", 
   "-mtune=mpcore", 
   "-mfloat-abi=hard", 
   "-mtp=soft", 
   "-I/Volumes/Blip/Projects/ctrUSB/include", 
   "-I/opt/devkitpro/libctru/include", 
   "-I/Volumes/Blip/Projects/ctrUSB/build", 
   "-DARM11", 
   "-D_3DS", 
   "-c", 
   "/Volumes/Blip/Projects/ctrUSB/source/main.c", 
   "-o", 
   "main.o"
  ], 
  "file": "/Volumes/Blip/Projects/ctrUSB/source/main.c"
 }
]
